{
	"custom_statuses": [
		{
			"url": "https://subdomain.zendesk.com/api/v2/custom_statuses/1234.json",
			"id": 1234,
			"status_category": "new",
			"agent_label": "New",
			"raw_agent_label": "{{zd.status_new}}",
			"end_user_label": "Open",
			"raw_end_user_label": "{{zd.status_end_user_new}}",
			"description": "Ticket is awaiting assignment to an agent",
			"raw_description": "{{zd.status_new_description}}",
			"end_user_description": "We are working on a response for you",
			"raw_end_user_description": "{{zd.status_end_user_new_description}}",
			"active": true,
			"default": true,
			"created_at": "2021-10-15T12:35:54Z",
			"updated_at": "2021-10-15T12:35:54Z"
		},
		{
			"url": "https://subdomain.zendesk.com/api/v2/custom_statuses/5678.json",
			"id": 5678,
			"status_category": "open",
			"agent_label": "Open",
			"raw_agent_label": "{{zd.status_open}}",
			"end_user_label": "Open",
			"raw_end_user_label": "{{zd.status_end_user_open}}",
			"description": "Staff is working on the ticket",
			"raw_description": "{{zd.status_open_description}}",
			"end_user_description": "We are working on a response for you",
			"raw_end_user_description": "{{zd.status_end_user_open_description}}",
			"active": true,
			"default": true,
			"created_at": "2021-10-15T12:35:54Z",
			"updated_at": "2021-10-15T12:35:54Z"
		},
		{
			"url": "https://subdomain.zendesk.com/api/v2/custom_statuses/4321.json",
			"id": 4321,
			"status_category": "pending",
			"agent_label": "Pending",
			"raw_agent_label": "{{zd.status_pending}}",
			"end_user_label": "Awaiting your reply",
			"raw_end_user_label": "{{zd.status_end_user_pending}}",
			"description": "Staff is waiting for the requester to reply",
			"raw_description": "{{zd.status_pending_description}}",
			"end_user_description": "We are waiting for you to respond",
			"raw_end_user_description": "{{zd.status_end_user_pending_description}}",
			"active": true,
			"default": true,
			"created_at": "2021-10-15T12:35:54Z",
			"updated_at": "2021-10-15T12:35:54Z"
		}
	],
	"next_page": "https://subdomain.zendesk.com/api/v2/custom_statuses.json?page=2",
	"previous_page": null,
	"count": 5
}
