{
    "sections": [
        {
            "category_id": 1,
            "created_at": "2023-09-21T10:00:00Z",
            "description": "Main Characters",
            "html_url": "https://southpark.fandom.com/wiki/Main_Characters",
            "id": 101,
            "locale": "en",
            "name": "Main Characters",
            "outdated": false,
            "parent_section_id": null,
            "position": 1,
            "sorting": "default",
            "source_locale": "en",
            "theme_template": "default",
            "updated_at": "2023-09-21T10:00:00Z",
            "url": "https://southpark.fandom.com/api/section/101"
        },
        {
            "category_id": 1,
            "created_at": "2023-09-21T11:15:00Z",
            "description": "Recurring Characters",
            "html_url": "https://southpark.fandom.com/wiki/Recurring_Characters",
            "id": 102,
            "locale": "en",
            "name": "Recurring Characters",
            "outdated": false,
            "parent_section_id": null,
            "position": 2,
            "sorting": "default",
            "source_locale": "en",
            "theme_template": "default",
            "updated_at": "2023-09-21T11:15:00Z",
            "url": "https://southpark.fandom.com/api/section/102"
        },
        {
            "category_id": 1,
            "created_at": "2023-09-21T12:30:00Z",
            "description": "Guest Characters",
            "html_url": "https://southpark.fandom.com/wiki/Guest_Characters",
            "id": 103,
            "locale": "en",
            "name": "Guest Characters",
            "outdated": false,
            "parent_section_id": null,
            "position": 3,
            "sorting": "default",
            "source_locale": "en",
            "theme_template": "default",
            "updated_at": "2023-09-21T12:30:00Z",
            "url": "https://southpark.fandom.com/api/section/103"
        }
    ],
    "page": 1,
    "previous_page": null,
    "next_page": "https://southpark.fandom.com/api/sections?page=2",
    "per_page": 10,
    "page_count": 2,
    "count": 20,
    "sort_by": "name",
    "sort_order": "asc"
}
