{
	"custom_roles": [
		{
			"id": 1000,
			"name": "Custom Role 1",
			"description": "",
			"role_type": 0,
			"created_at": "2013-10-04T12:11:37Z",
			"updated_at": "2023-05-17T20:38:25Z",
			"configuration": {
				"chat_access": true,
				"end_user_list_access": "full",
				"forum_access_restricted_content": false,
				"light_agent": false,
				"manage_business_rules": false,
				"manage_dynamic_content": false,
				"manage_extensions_and_channels": false,
				"manage_facebook": false,
				"moderate_forums": false,
				"side_conversation_create": true,
				"ticket_access": "all",
				"ticket_comment_access": "public",
				"ticket_deletion": false,
				"ticket_tag_editing": true,
				"twitter_search_access": false,
				"view_deleted_tickets": false,
				"voice_access": true,
				"group_access": false,
				"organization_editing": false,
				"organization_notes_editing": false,
				"assign_tickets_to_any_group": false,
				"end_user_profile_access": "readonly",
				"explore_access": "readonly",
				"forum_access": "full",
				"macro_access": "readonly",
				"report_access": "readonly",
				"ticket_editing": true,
				"ticket_merge": false,
				"user_view_access": "none",
				"view_access": "readonly",
				"voice_dashboard_access": false,
				"manage_automations": false,
				"manage_contextual_workspaces": false,
				"manage_organization_fields": false,
				"manage_skills": false,
				"manage_slas": false,
				"manage_ticket_fields": false,
				"manage_ticket_forms": false,
				"manage_user_fields": false,
				"ticket_redaction": false,
				"manage_roles": "none",
				"manage_groups": false,
				"manage_group_memberships": false,
				"manage_organizations": false,
				"manage_suspended_tickets": true,
				"manage_triggers": false,
				"view_reduced_count": false,
				"view_filter_tickets": true,
				"custom_objects": {}
			},
			"team_member_count": 3
		},
		{
			"id": 20191,
			"name": "Custom Role 2",
			"description": "",
			"role_type": 0,
			"created_at": "2023-07-13T01:34:57Z",
			"updated_at": "2023-09-08T22:01:24Z",
			"configuration": {
				"chat_access": true,
				"end_user_list_access": "full",
				"forum_access_restricted_content": false,
				"light_agent": false,
				"manage_business_rules": false,
				"manage_dynamic_content": false,
				"manage_extensions_and_channels": false,
				"manage_facebook": false,
				"moderate_forums": false,
				"side_conversation_create": true,
				"ticket_access": "all",
				"ticket_comment_access": "none",
				"ticket_deletion": true,
				"ticket_tag_editing": true,
				"twitter_search_access": false,
				"view_deleted_tickets": false,
				"voice_access": true,
				"group_access": false,
				"organization_editing": true,
				"organization_notes_editing": true,
				"assign_tickets_to_any_group": true,
				"end_user_profile_access": "readonly",
				"explore_access": "none",
				"forum_access": "readonly",
				"macro_access": "manage-group",
				"report_access": "none",
				"ticket_editing": true,
				"ticket_merge": true,
				"user_view_access": "readonly",
				"view_access": "manage-group",
				"voice_dashboard_access": true,
				"manage_automations": false,
				"manage_contextual_workspaces": false,
				"manage_organization_fields": true,
				"manage_skills": false,
				"manage_slas": false,
				"manage_ticket_fields": false,
				"manage_ticket_forms": false,
				"manage_user_fields": false,
				"ticket_redaction": false,
				"manage_roles": "none",
				"manage_groups": false,
				"manage_group_memberships": false,
				"manage_organizations": true,
				"manage_suspended_tickets": true,
				"manage_triggers": false,
				"view_reduced_count": false,
				"view_filter_tickets": true,
				"custom_objects": {}
			},
			"team_member_count": 5
		}
	],
	"next_page": "https://subdomain.zendesk.com/api/v2/custom_roles.json?page=2",
	"previous_page": null,
	"count": 4
}
